数电/digital_clock -lab/simulation/qsim/digital_clock.msim.vcd
$comment
	File created using the following command:
		vcd file digital_clock.msim.vcd -direction
$end
$date
	Mon Dec 20 00:40:27 2021
$end
$version
	ModelSim Version 10.1d
$end
$timescale
	1ps
$end
$scope module cnt10_vlg_vec_tst $end
$var reg 1 ! clk $end
$var wire 1 " co $end
$var wire 1 # sampler $end
$scope module i1 $end
$var wire 1 $ gnd $end
$var wire 1 % vcc $end
$var wire 1 & unknown $end
$var tri1 1 ' devclrn $end
$var tri1 1 ( devpor $end
$var tri1 1 ) devoe $end
$var wire 1 * co~output_o $end
$var wire 1 + clk~input_o $end
$var wire 1 , clk~inputclkctrl_outclk $end
$var wire 1 - inst3~feeder_combout $end
$var wire 1 . inst|7~0_combout $end
$var wire 1 / inst|7~feeder_combout $end
$var wire 1 0 inst|7~q $end
$var wire 1 1 inst|20~combout $end
$var wire 1 2 inst|6~0_combout $end
$var wire 1 3 inst|6~q $end
$var wire 1 4 inst|5~0_combout $end
$var wire 1 5 inst|5~q $end
$var wire 1 6 inst|3~0_combout $end
$var wire 1 7 inst|3~q $end
$var wire 1 8 inst2~combout $end
$var wire 1 9 inst3~q $end
$upscope $end
$upscope $end
$enddefinitions $end
#0
$dumpvars
0!
x"
x#
0$
1%
x&
1'
1(
1)
x*
0+
x,
1-
x.
x/
00
x1
x2
03
14
05
x6
07
x8
09
$end
#206
0,
#582
08
#732
06
#806
11
#928
12
#1692
1.
#3141
1/
#4311
1*
1"
#5000
1!
0#
#5825
1+
#6045
1,
#8134
19
#10000
0!
1#
#10838
0+
#11044
0,
#12429
0*
0"
#13128
10
#13815
01
#14782
0.
#15000
1!
0#
#15825
1+
#16045
1,
#16289
0/
#20000
0!
1#
#20838
0+
#21044
0,
#23128
00
#23934
11
#24820
1.
#25000
1!
0#
#25220
13
#25825
1+
#26045
1,
#26072
02
#26269
1/
#30000
0!
1#
#30838
0+
#31044
0,
#33128
10
#33815
01
#34782
0.
#35000
1!
0#
#35825
1+
#36045
1,
#36289
0/
#40000
0!
1#
#40838
0+
#41044
0,
#43128
00
#43934
11
#44820
1.
#45000
1!
0#
#45220
03
#45825
1+
#46045
1,
#46148
12
#46269
1/
#46919
15
#47464
04
#50000
0!
1#
#50838
0+
#51044
0,
#53128
10
#53815
01
#54782
0.
#55000
1!
0#
#55825
1+
#56045
1,
#56289
0/
#60000
0!
1#
#60838
0+
#61044
0,
#63128
00
#63934
11
#64820
1.
#65000
1!
0#
#65220
13
#65825
1+
#66045
1,
#66072
02
#66269
1/
#66861
16
#70000
0!
1#
#70838
0+
#71044
0,
#73128
10
#73815
01
#74782
0.
#75000
1!
0#
#75825
1+
#76045
1,
#76289
0/
#80000
0!
1#
#80838
0+
#81044
0,
#83128
00
#83934
11
#84820
1.
#84994
17
#85000
1!
0#
#85220
03
#85539
06
#85825
1+
#86045
1,
#86148
12
#86269
1/
#86919
05
#87434
14
#90000
0!
1#
#90838
0+
#91044
0,
#93128
10
#94782
0.
#95000
1!
0#
#95262
18
#95825
1+
#96045
1,
#96289
0/
#96642
09
#100000
0!
1#
#100838
0+
#100953
1*
1"
#101044
0,
#103128
00
#104820
1.
#104994
07
#105000
1!
0#
#105317
08
#105825
1+
#106045
1,
#106269
1/
#108134
19
#110000
0!
1#
#110838
0+
#111044
0,
#112429
0*
0"
#113128
10
#113815
01
#114782
0.
#115000
1!
0#
#115825
1+
#116045
1,
#116289
0/
#120000
0!
1#
#120838
0+
#121044
0,
#123128
00
#123934
11
#124820
1.
#125000
1!
0#
#125220
13
#125825
1+
#126045
1,
#126072
02
#126269
1/
#130000
0!
1#
#130838
0+
#131044
0,
#133128
10
#133815
01
#134782
0.
#135000
1!
0#
#135825
1+
#136045
1,
#136289
0/
#140000
0!
1#
#140838
0+
#141044
0,
#143128
00
#143934
11
#144820
1.
#145000
1!
0#
#145220
03
#145825
1+
#146045
1,
#146148
12
#146269
1/
#146919
15
#147464
04
#150000
0!
1#
#150838
0+
#151044
0,
#153128
10
#153815
01
#154782
0.
#155000
1!
0#
#155825
1+
#156045
1,
#156289
0/
#160000
0!
1#
#160838
0+
#161044
0,
#163128
00
#163934
11
#164820
1.
#165000
1!
0#
#165220
13
#165825
1+
#166045
1,
#166072
02
#166269
1/
#166861
16
#170000
0!
1#
#170838
0+
#171044
0,
#173128
10
#173815
01
#174782
0.
#175000
1!
0#
#175825
1+
#176045
1,
#176289
0/
#180000
0!
1#
#180838
0+
#181044
0,
#183128
00
#183934
11
#184820
1.
#184994
17
#185000
1!
0#
#185220
03
#185539
06
#185825
1+
#186045
1,
#186148
12
#186269
1/
#186919
05
#187434
14
#190000
0!
1#
#190838
0+
#191044
0,
#193128
10
#194782
0.
#195000
1!
0#
#195262
18
#195825
1+
#196045
1,
#196289
0/
#196642
09
#200000
0!
1#
#200838
0+
#200953
1*
1"
#201044
0,
#203128
00
#204820
1.
#204994
07
#205000
1!
0#
#205317
08
#205825
1+
#206045
1,
#206269
1/
#208134
19
#210000
0!
1#
#210838
0+
#211044
0,
#212429
0*
0"
#213128
10
#213815
01
#214782
0.
#215000
1!
0#
#215825
1+
#216045
1,
#216289
0/
#220000
0!
1#
#220838
0+
#221044
0,
#223128
00
#223934
11
#224820
1.
#225000
1!
0#
#225220
13
#225825
1+
#226045
1,
#226072
02
#226269
1/
#230000
0!
1#
#230838
0+
#231044
0,
#233128
10
#233815
01
#234782
0.
#235000
1!
0#
#235825
1+
#236045
1,
#236289
0/
#240000
0!
1#
#240838
0+
#241044
0,
#243128
00
#243934
11
#244820
1.
#245000
1!
0#
#245220
03
#245825
1+
#246045
1,
#246148
12
#246269
1/
#246919
15
#247464
04
#250000
0!
1#
#250838
0+
#251044
0,
#253128
10
#253815
01
#254782
0.
#255000
1!
0#
#255825
1+
#256045
1,
#256289
0/
#260000
0!
1#
#260838
0+
#261044
0,
#263128
00
#263934
11
#264820
1.
#265000
1!
0#
#265220
13
#265825
1+
#266045
1,
#266072
02
#266269
1/
#266861
16
#270000
0!
1#
#270838
0+
#271044
0,
#273128
10
#273815
01
#274782
0.
#275000
1!
0#
#275825
1+
#276045
1,
#276289
0/
#280000
0!
1#
#280838
0+
#281044
0,
#283128
00
#283934
11
#284820
1.
#284994
17
#285000
1!
0#
#285220
03
#285539
06
#285825
1+
#286045
1,
#286148
12
#286269
1/
#286919
05
#287434
14
#290000
0!
1#
#290838
0+
#291044
0,
#293128
10
#294782
0.
#295000
1!
0#
#295262
18
#295825
1+
#296045
1,
#296289
0/
#296642
09
#300000
0!
1#
#300838
0+
#300953
1*
1"
#301044
0,
#303128
00
#304820
1.
#304994
07
#305000
1!
0#
#305317
08
#305825
1+
#306045
1,
#306269
1/
#308134
19
#310000
0!
1#
#310838
0+
#311044
0,
#312429
0*
0"
#313128
10
#313815
01
#314782
0.
#315000
1!
0#
#315825
1+
#316045
1,
#316289
0/
#320000
0!
1#
#320838
0+
#321044
0,
#323128
00
#323934
11
#324820
1.
#325000
1!
0#
#325220
13
#325825
1+
#326045
1,
#326072
02
#326269
1/
#330000
0!
1#
#330838
0+
#331044
0,
#333128
10
#333815
01
#334782
0.
#335000
1!
0#
#335825
1+
#336045
1,
#336289
0/
#340000
0!
1#
#340838
0+
#341044
0,
#343128
00
#343934
11
#344820
1.
#345000
1!
0#
#345220
03
#345825
1+
#346045
1,
#346148
12
#346269
1/
#346919
15
#347464
04
#350000
0!
1#
#350838
0+
#351044
0,
#353128
10
#353815
01
#354782
0.
#355000
1!
0#
#355825
1+
#356045
1,
#356289
0/
#360000
0!
1#
#360838
0+
#361044
0,
#363128
00
#363934
11
#364820
1.
#365000
1!
0#
#365220
13
#365825
1+
#366045
1,
#366072
02
#366269
1/
#366861
16
#370000
0!
1#
#370838
0+
#371044
0,
#373128
10
#373815
01
#374782
0.
#375000
1!
0#
#375825
1+
#376045
1,
#376289
0/
#380000
0!
1#
#380838
0+
#381044
0,
#383128
00
#383934
11
#384820
1.
#384994
17
#385000
1!
0#
#385220
03
#385539
06
#385825
1+
#386045
1,
#386148
12
#386269
1/
#386919
05
#387434
14
#390000
0!
1#
#390838
0+
#391044
0,
#393128
10
#394782
0.
#395000
1!
0#
#395262
18
#395825
1+
#396045
1,
#396289
0/
#396642
09
#400000
0!
1#
#400838
0+
#400953
1*
1"
#401044
0,
#403128
00
#404820
1.
#404994
07
#405000
1!
0#
#405317
08
#405825
1+
#406045
1,
#406269
1/
#408134
19
#410000
0!
1#
#410838
0+
#411044
0,
#412429
0*
0"
#413128
10
#413815
01
#414782
0.
#415000
1!
0#
#415825
1+
#416045
1,
#416289
0/
#420000
0!
1#
#420838
0+
#421044
0,
#423128
00
#423934
11
#424820
1.
#425000
1!
0#
#425220
13
#425825
1+
#426045
1,
#426072
02
#426269
1/
#430000
0!
1#
#430838
0+
#431044
0,
#433128
10
#433815
01
#434782
0.
#435000
1!
0#
#435825
1+
#436045
1,
#436289
0/
#440000
0!
1#
#440838
0+
#441044
0,
#443128
00
#443934
11
#444820
1.
#445000
1!
0#
#445220
03
#445825
1+
#446045
1,
#446148
12
#446269
1/
#446919
15
#447464
04
#450000
0!
1#
#450838
0+
#451044
0,
#453128
10
#453815
01
#454782
0.
#455000
1!
0#
#455825
1+
#456045
1,
#456289
0/
#460000
0!
1#
#460838
0+
#461044
0,
#463128
00
#463934
11
#464820
1.
#465000
1!
0#
#465220
13
#465825
1+
#466045
1,
#466072
02
#466269
1/
#466861
16
#470000
0!
1#
#470838
0+
#471044
0,
#473128
10
#473815
01
#474782
0.
#475000
1!
0#
#475825
1+
#476045
1,
#476289
0/
#480000
0!
1#
#480838
0+
#481044
0,
#483128
00
#483934
11
#484820
1.
#484994
17
#485000
1!
0#
#485220
03
#485539
06
#485825
1+
#486045
1,
#486148
12
#486269
1/
#486919
05
#487434
14
#490000
0!
1#
#490838
0+
#491044
0,
#493128
10
#494782
0.
#495000
1!
0#
#495262
18
#495825
1+
#496045
1,
#496289
0/
#496642
09
#500000
0!
1#
#500838
0+
#500953
1*
1"
#501044
0,
#503128
00
#504820
1.
#504994
07
#505000
1!
0#
#505317
08
#505825
1+
#506045
1,
#506269
1/
#508134
19
#510000
0!
1#
#510838
0+
#511044
0,
#512429
0*
0"
#513128
10
#513815
01
#514782
0.
#515000
1!
0#
#515825
1+
#516045
1,
#516289
0/
#520000
0!
1#
#520838
0+
#521044
0,
#523128
00
#523934
11
#524820
1.
#525000
1!
0#
#525220
13
#525825
1+
#526045
1,
#526072
02
#526269
1/
#530000
0!
1#
#530838
0+
#531044
0,
#533128
10
#533815
01
#534782
0.
#535000
1!
0#
#535825
1+
#536045
1,
#536289
0/
#540000
0!
1#
#540838
0+
#541044
0,
#543128
00
#543934
11
#544820
1.
#545000
1!
0#
#545220
03
#545825
1+
#546045
1,
#546148
12
#546269
1/
#546919
15
#547464
04
#550000
0!
1#
#550838
0+
#551044
0,
#553128
10
#553815
01
#554782
0.
#555000
1!
0#
#555825
1+
#556045
1,
#556289
0/
#560000
0!
1#
#560838
0+
#561044
0,
#563128
00
#563934
11
#564820
1.
#565000
1!
0#
#565220
13
#565825
1+
#566045
1,
#566072
02
#566269
1/
#566861
16
#570000
0!
1#
#570838
0+
#571044
0,
#573128
10
#573815
01
#574782
0.
#575000
1!
0#
#575825
1+
#576045
1,
#576289
0/
#580000
0!
1#
#580838
0+
#581044
0,
#583128
00
#583934
11
#584820
1.
#584994
17
#585000
1!
0#
#585220
03
#585539
06
#585825
1+
#586045
1,
#586148
12
#586269
1/
#586919
05
#587434
14
#590000
0!
1#
#590838
0+
#591044
0,
#593128
10
#594782
0.
#595000
1!
0#
#595262
18
#595825
1+
#596045
1,
#596289
0/
#596642
09
#600000
0!
1#
#600838
0+
#600953
1*
1"
#601044
0,
#603128
00
#604820
1.
#604994
07
#605000
1!
0#
#605317
08
#605825
1+
#606045
1,
#606269
1/
#608134
19
#610000
0!
1#
#610838
0+
#611044
0,
#612429
0*
0"
#613128
10
#613815
01
#614782
0.
#615000
1!
0#
#615825
1+
#616045
1,
#616289
0/
#620000
0!
1#
#620838
0+
#621044
0,
#623128
00
#623934
11
#624820
1.
#625000
1!
0#
#625220
13
#625825
1+
#626045
1,
#626072
02
#626269
1/
#630000
0!
1#
#630838
0+
#631044
0,
#633128
10
#633815
01
#634782
0.
#635000
1!
0#
#635825
1+
#636045
1,
#636289
0/
#640000
0!
1#
#640838
0+
#641044
0,
#643128
00
#643934
11
#644820
1.
#645000
1!
0#
#645220
03
#645825
1+
#646045
1,
#646148
12
#646269
1/
#646919
15
#647464
04
#650000
0!
1#
#650838
0+
#651044
0,
#653128
10
#653815
01
#654782
0.
#655000
1!
0#
#655825
1+
#656045
1,
#656289
0/
#660000
0!
1#
#660838
0+
#661044
0,
#663128
00
#663934
11
#664820
1.
#665000
1!
0#
#665220
13
#665825
1+
#666045
1,
#666072
02
#666269
1/
#666861
16
#670000
0!
1#
#670838
0+
#671044
0,
#673128
10
#673815
01
#674782
0.
#675000
1!
0#
#675825
1+
#676045
1,
#676289
0/
#680000
0!
1#
#680838
0+
#681044
0,
#683128
00
#683934
11
#684820
1.
#684994
17
#685000
1!
0#
#685220
03
#685539
06
#685825
1+
#686045
1,
#686148
12
#686269
1/
#686919
05
#687434
14
#690000
0!
1#
#690838
0+
#691044
0,
#693128
10
#694782
0.
#695000
1!
0#
#695262
18
#695825
1+
#696045
1,
#696289
0/
#696642
09
#700000
0!
1#
#700838
0+
#700953
1*
1"
#701044
0,
#703128
00
#704820
1.
#704994
07
#705000
1!
0#
#705317
08
#705825
1+
#706045
1,
#706269
1/
#708134
19
#710000
0!
1#
#710838
0+
#711044
0,
#712429
0*
0"
#713128
10
#713815
01
#714782
0.
#715000
1!
0#
#715825
1+
#716045
1,
#716289
0/
#720000
0!
1#
#720838
0+
#721044
0,
#723128
00
#723934
11
#724820
1.
#725000
1!
0#
#725220
13
#725825
1+
#726045
1,
#726072
02
#726269
1/
#730000
0!
1#
#730838
0+
#731044
0,
#733128
10
#733815
01
#734782
0.
#735000
1!
0#
#735825
1+
#736045
1,
#736289
0/
#740000
0!
1#
#740838
0+
#741044
0,
#743128
00
#743934
11
#744820
1.
#745000
1!
0#
#745220
03
#745825
1+
#746045
1,
#746148
12
#746269
1/
#746919
15
#747464
04
#750000
0!
1#
#750838
0+
#751044
0,
#753128
10
#753815
01
#754782
0.
#755000
1!
0#
#755825
1+
#756045
1,
#756289
0/
#760000
0!
1#
#760838
0+
#761044
0,
#763128
00
#763934
11
#764820
1.
#765000
1!
0#
#765220
13
#765825
1+
#766045
1,
#766072
02
#766269
1/
#766861
16
#770000
0!
1#
#770838
0+
#771044
0,
#773128
10
#773815
01
#774782
0.
#775000
1!
0#
#775825
1+
#776045
1,
#776289
0/
#780000
0!
1#
#780838
0+
#781044
0,
#783128
00
#783934
11
#784820
1.
#784994
17
#785000
1!
0#
#785220
03
#785539
06
#785825
1+
#786045
1,
#786148
12
#786269
1/
#786919
05
#787434
14
#790000
0!
1#
#790838
0+
#791044
0,
#793128
10
#794782
0.
#795000
1!
0#
#795262
18
#795825
1+
#796045
1,
#796289
0/
#796642
09
#800000
0!
1#
#800838
0+
#800953
1*
1"
#801044
0,
#803128
00
#804820
1.
#804994
07
#805000
1!
0#
#805317
08
#805825
1+
#806045
1,
#806269
1/
#808134
19
#810000
0!
1#
#810838
0+
#811044
0,
#812429
0*
0"
#813128
10
#813815
01
#814782
0.
#815000
1!
0#
#815825
1+
#816045
1,
#816289
0/
#820000
0!
1#
#820838
0+
#821044
0,
#823128
00
#823934
11
#824820
1.
#825000
1!
0#
#825220
13
#825825
1+
#826045
1,
#826072
02
#826269
1/
#830000
0!
1#
#830838
0+
#831044
0,
#833128
10
#833815
01
#834782
0.
#835000
1!
0#
#835825
1+
#836045
1,
#836289
0/
#840000
0!
1#
#840838
0+
#841044
0,
#843128
00
#843934
11
#844820
1.
#845000
1!
0#
#845220
03
#845825
1+
#846045
1,
#846148
12
#846269
1/
#846919
15
#847464
04
#850000
0!
1#
#850838
0+
#851044
0,
#853128
10
#853815
01
#854782
0.
#855000
1!
0#
#855825
1+
#856045
1,
#856289
0/
#860000
0!
1#
#860838
0+
#861044
0,
#863128
00
#863934
11
#864820
1.
#865000
1!
0#
#865220
13
#865825
1+
#866045
1,
#866072
02
#866269
1/
#866861
16
#870000
0!
1#
#870838
0+
#871044
0,
#873128
10
#873815
01
#874782
0.
#875000
1!
0#
#875825
1+
#876045
1,
#876289
0/
#880000
0!
1#
#880838
0+
#881044
0,
#883128
00
#883934
11
#884820
1.
#884994
17
#885000
1!
0#
#885220
03
#885539
06
#885825
1+
#886045
1,
#886148
12
#886269
1/
#886919
05
#887434
14
#890000
0!
1#
#890838
0+
#891044
0,
#893128
10
#894782
0.
#895000
1!
0#
#895262
18
#895825
1+
#896045
1,
#896289
0/
#896642
09
#900000
0!
1#
#900838
0+
#900953
1*
1"
#901044
0,
#903128
00
#904820
1.
#904994
07
#905000
1!
0#
#905317
08
#905825
1+
#906045
1,
#906269
1/
#908134
19
#910000
0!
1#
#910838
0+
#911044
0,
#912429
0*
0"
#913128
10
#913815
01
#914782
0.
#915000
1!
0#
#915825
1+
#916045
1,
#916289
0/
#920000
0!
1#
#920838
0+
#921044
0,
#923128
00
#923934
11
#924820
1.
#925000
1!
0#
#925220
13
#925825
1+
#926045
1,
#926072
02
#926269
1/
#930000
0!
1#
#930838
0+
#931044
0,
#933128
10
#933815
01
#934782
0.
#935000
1!
0#
#935825
1+
#936045
1,
#936289
0/
#940000
0!
1#
#940838
0+
#941044
0,
#943128
00
#943934
11
#944820
1.
#945000
1!
0#
#945220
03
#945825
1+
#946045
1,
#946148
12
#946269
1/
#946919
15
#947464
04
#950000
0!
1#
#950838
0+
#951044
0,
#953128
10
#953815
01
#954782
0.
#955000
1!
0#
#955825
1+
#956045
1,
#956289
0/
#960000
0!
1#
#960838
0+
#961044
0,
#963128
00
#963934
11
#964820
1.
#965000
1!
0#
#965220
13
#965825
1+
#966045
1,
#966072
02
#966269
1/
#966861
16
#970000
0!
1#
#970838
0+
#971044
0,
#973128
10
#973815
01
#974782
0.
#975000
1!
0#
#975825
1+
#976045
1,
#976289
0/
#980000
0!
1#
#980838
0+
#981044
0,
#983128
00
#983934
11
#984820
1.
#984994
17
#985000
1!
0#
#985220
03
#985539
06
#985825
1+
#986045
1,
#986148
12
#986269
1/
#986919
05
#987434
14
#990000
0!
1#
#990838
0+
#991044
0,
#993128
10
#994782
0.
#995000
1!
0#
#995262
18
#995825
1+
#996045
1,
#996289
0/
#996642
09
