数电/final_projct/simulation/qsim/final_projct.msim.vcd
$comment
	File created using the following command:
		vcd file final_projct.msim.vcd -direction
$end
$date
	Sun Dec 20 19:44:36 2020
$end
$version
	ModelSim Version 10.1d
$end
$timescale
	1ps
$end
$scope module decoder_vlg_vec_tst $end
$var reg 4 ! code [3:0] $end
$var wire 1 " seg [6] $end
$var wire 1 # seg [5] $end
$var wire 1 $ seg [4] $end
$var wire 1 % seg [3] $end
$var wire 1 & seg [2] $end
$var wire 1 ' seg [1] $end
$var wire 1 ( seg [0] $end
$var wire 1 ) sampler $end
$scope module i1 $end
$var wire 1 * gnd $end
$var wire 1 + vcc $end
$var wire 1 , unknown $end
$var tri1 1 - devclrn $end
$var tri1 1 . devpor $end
$var tri1 1 / devoe $end
$var wire 1 0 seg[6]~output_o $end
$var wire 1 1 seg[5]~output_o $end
$var wire 1 2 seg[4]~output_o $end
$var wire 1 3 seg[3]~output_o $end
$var wire 1 4 seg[2]~output_o $end
$var wire 1 5 seg[1]~output_o $end
$var wire 1 6 seg[0]~output_o $end
$var wire 1 7 code[1]~input_o $end
$var wire 1 8 code[2]~input_o $end
$var wire 1 9 code[3]~input_o $end
$var wire 1 : code[0]~input_o $end
$var wire 1 ; inst|72~combout $end
$var wire 1 < inst|66~0_combout $end
$var wire 1 = inst|71~combout $end
$var wire 1 > inst|67~0_combout $end
$var wire 1 ? inst|70~combout $end
$var wire 1 @ inst|68~0_combout $end
$var wire 1 A inst|69~0_combout $end
$upscope $end
$upscope $end
$enddefinitions $end
#0
$dumpvars
b0 !
1(
1'
1&
1%
1$
1#
0"
x)
0*
1+
x,
1-
1.
1/
00
11
12
13
14
15
16
07
08
09
0:
1;
0<
0=
1>
0?
0@
0A
$end
#10000
b1 !
1:
0)
1A
1=
1<
0>
06
02
01
03
0(
0$
0#
0%
#20000
b11 !
b10 !
0:
17
1)
0A
1?
0=
0;
1>
16
04
12
10
13
1(
0&
1$
1"
1%
#30000
b11 !
1:
0)
0?
1=
14
02
1&
0$
#40000
b111 !
b101 !
b100 !
0:
07
18
1)
1A
0<
0>
06
11
03
0(
1#
0%
#50000
b101 !
1:
0)
0A
1@
1>
16
05
13
1(
0'
1%
#60000
b111 !
b110 !
0:
17
1)
1A
0=
06
12
0(
1$
#70000
b111 !
1:
0)
0A
0@
1=
1<
1;
0>
16
15
02
01
00
03
1(
1'
0$
0#
0"
0%
#80000
b1111 !
b1011 !
b1001 !
b1000 !
0:
07
08
19
1)
0=
0<
0;
1>
12
11
10
13
1$
1#
1"
1%
#90000
b1001 !
1:
0)
1=
0>
02
03
0$
0%
#100000
b1011 !
b1010 !
0:
17
1)
1A
1@
1?
0=
1<
1>
06
05
04
12
01
13
0(
0'
0&
1$
0#
1%
#110000
b1011 !
1:
0)
0?
1=
14
02
1&
0$
#120000
b1111 !
b1101 !
b1100 !
0:
07
18
1)
0@
1?
0<
0>
15
04
11
03
1'
0&
1#
0%
#130000
b1101 !
1:
0)
0A
1@
1>
16
05
13
1(
0'
1%
#140000
b1111 !
b1110 !
0:
17
1)
1A
0=
06
12
0(
1$
#150000
b1111 !
1:
0)
1=
1<
1;
0>
02
01
00
03
0$
0#
0"
0%
#160000
b111 !
b11 !
b1 !
b0 !
0:
07
08
09
1)
0A
0@
0?
0=
0<
1>
16
15
14
12
11
13
1(
1'
1&
1$
1#
1%
#170000
b1 !
1:
0)
1A
1=
1<
0>
06
02
01
03
0(
0$
0#
0%
#180000
b11 !
b10 !
0:
17
1)
0A
1?
0=
0;
1>
16
04
12
10
13
1(
0&
1$
1"
1%
#190000
b11 !
1:
0)
0?
1=
14
02
1&
0$
#200000
b111 !
b101 !
b100 !
0:
07
18
1)
1A
0<
0>
06
11
03
0(
1#
0%
#210000
b101 !
1:
0)
0A
1@
1>
16
05
13
1(
0'
1%
#220000
b111 !
b110 !
0:
17
1)
1A
0=
06
12
0(
1$
#230000
b111 !
1:
0)
0A
0@
1=
1<
1;
0>
16
15
02
01
00
03
1(
1'
0$
0#
0"
0%
#240000
b1111 !
b1011 !
b1001 !
b1000 !
0:
07
08
19
1)
0=
0<
0;
1>
12
11
10
13
1$
1#
1"
1%
#250000
b1001 !
1:
0)
1=
0>
02
03
0$
0%
#260000
b1011 !
b1010 !
0:
17
1)
1A
1@
1?
0=
1<
1>
06
05
04
12
01
13
0(
0'
0&
1$
0#
1%
#270000
b1011 !
1:
0)
0?
1=
14
02
1&
0$
#280000
b1111 !
b1101 !
b1100 !
0:
07
18
1)
0@
1?
0<
0>
15
04
11
03
1'
0&
1#
0%
#290000
b1101 !
1:
0)
0A
1@
1>
16
05
13
1(
0'
1%
#300000
b1111 !
b1110 !
0:
17
1)
1A
0=
06
12
0(
1$
#310000
b1111 !
1:
0)
1=
1<
1;
0>
02
01
00
03
0$
0#
0"
0%
#320000
b111 !
b11 !
b1 !
b0 !
0:
07
08
09
1)
0A
0@
0?
0=
0<
1>
16
15
14
12
11
13
1(
1'
1&
1$
1#
1%
#330000
b1 !
1:
0)
1A
1=
1<
0>
06
02
01
03
0(
0$
0#
0%
#340000
b11 !
b10 !
0:
17
1)
0A
1?
0=
0;
1>
16
04
12
10
13
1(
0&
1$
1"
1%
#350000
b11 !
1:
0)
0?
1=
14
02
1&
0$
#360000
b111 !
b101 !
b100 !
0:
07
18
1)
1A
0<
0>
06
11
03
0(
1#
0%
#370000
b101 !
1:
0)
0A
1@
1>
16
05
13
1(
0'
1%
#380000
b111 !
b110 !
0:
17
1)
1A
0=
06
12
0(
1$
#390000
b111 !
1:
0)
0A
0@
1=
1<
1;
0>
16
15
02
01
00
03
1(
1'
0$
0#
0"
0%
#400000
b1111 !
b1011 !
b1001 !
b1000 !
0:
07
08
19
1)
0=
0<
0;
1>
12
11
10
13
1$
1#
1"
1%
#410000
b1001 !
1:
0)
1=
0>
02
03
0$
0%
#420000
b1011 !
b1010 !
0:
17
1)
1A
1@
1?
0=
1<
1>
06
05
04
12
01
13
0(
0'
0&
1$
0#
1%
#430000
b1011 !
1:
0)
0?
1=
14
02
1&
0$
#440000
b1111 !
b1101 !
b1100 !
0:
07
18
1)
0@
1?
0<
0>
15
04
11
03
1'
0&
1#
0%
#450000
b1101 !
1:
0)
0A
1@
1>
16
05
13
1(
0'
1%
#460000
b1111 !
b1110 !
0:
17
1)
1A
0=
06
12
0(
1$
#470000
b1111 !
1:
0)
1=
1<
1;
0>
02
01
00
03
0$
0#
0"
0%
#480000
b111 !
b11 !
b1 !
b0 !
0:
07
08
09
1)
0A
0@
0?
0=
0<
1>
16
15
14
12
11
13
1(
1'
1&
1$
1#
1%
#490000
b1 !
1:
0)
1A
1=
1<
0>
06
02
01
03
0(
0$
0#
0%
#500000
b11 !
b10 !
0:
17
1)
0A
1?
0=
0;
1>
16
04
12
10
13
1(
0&
1$
1"
1%
#510000
b11 !
1:
0)
0?
1=
14
02
1&
0$
#520000
b111 !
b101 !
b100 !
0:
07
18
1)
1A
0<
0>
06
11
03
0(
1#
0%
#530000
b101 !
1:
0)
0A
1@
1>
16
05
13
1(
0'
1%
#540000
b111 !
b110 !
0:
17
1)
1A
0=
06
12
0(
1$
#550000
b111 !
1:
0)
0A
0@
1=
1<
1;
0>
16
15
02
01
00
03
1(
1'
0$
0#
0"
0%
#560000
b1111 !
b1011 !
b1001 !
b1000 !
0:
07
08
19
1)
0=
0<
0;
1>
12
11
10
13
1$
1#
1"
1%
#570000
b1001 !
1:
0)
1=
0>
02
03
0$
0%
#580000
b1011 !
b1010 !
0:
17
1)
1A
1@
1?
0=
1<
1>
06
05
04
12
01
13
0(
0'
0&
1$
0#
1%
#590000
b1011 !
1:
0)
0?
1=
14
02
1&
0$
#600000
b1111 !
b1101 !
b1100 !
0:
07
18
1)
0@
1?
0<
0>
15
04
11
03
1'
0&
1#
0%
#610000
b1101 !
1:
0)
0A
1@
1>
16
05
13
1(
0'
1%
#620000
b1111 !
b1110 !
0:
17
1)
1A
0=
06
12
0(
1$
#630000
b1111 !
1:
0)
1=
1<
1;
0>
02
01
00
03
0$
0#
0"
0%
#640000
b111 !
b11 !
b1 !
b0 !
0:
07
08
09
1)
0A
0@
0?
0=
0<
1>
16
15
14
12
11
13
1(
1'
1&
1$
1#
1%
#650000
b1 !
1:
0)
1A
1=
1<
0>
06
02
01
03
0(
0$
0#
0%
#660000
b11 !
b10 !
0:
17
1)
0A
1?
0=
0;
1>
16
04
12
10
13
1(
0&
1$
1"
1%
#670000
b11 !
1:
0)
0?
1=
14
02
1&
0$
#680000
b111 !
b101 !
b100 !
0:
07
18
1)
1A
0<
0>
06
11
03
0(
1#
0%
#690000
b101 !
1:
0)
0A
1@
1>
16
05
13
1(
0'
1%
#700000
b111 !
b110 !
0:
17
1)
1A
0=
06
12
0(
1$
#710000
b111 !
1:
0)
0A
0@
1=
1<
1;
0>
16
15
02
01
00
03
1(
1'
0$
0#
0"
0%
#720000
b1111 !
b1011 !
b1001 !
b1000 !
0:
07
08
19
1)
0=
0<
0;
1>
12
11
10
13
1$
1#
1"
1%
#730000
b1001 !
1:
0)
1=
0>
02
03
0$
0%
#740000
b1011 !
b1010 !
0:
17
1)
1A
1@
1?
0=
1<
1>
06
05
04
12
01
13
0(
0'
0&
1$
0#
1%
#750000
b1011 !
1:
0)
0?
1=
14
02
1&
0$
#760000
b1111 !
b1101 !
b1100 !
0:
07
18
1)
0@
1?
0<
0>
15
04
11
03
1'
0&
1#
0%
#770000
b1101 !
1:
0)
0A
1@
1>
16
05
13
1(
0'
1%
#780000
b1111 !
b1110 !
0:
17
1)
1A
0=
06
12
0(
1$
#790000
b1111 !
1:
0)
1=
1<
1;
0>
02
01
00
03
0$
0#
0"
0%
#800000
b111 !
b11 !
b1 !
b0 !
0:
07
08
09
1)
0A
0@
0?
0=
0<
1>
16
15
14
12
11
13
1(
1'
1&
1$
1#
1%
#810000
b1 !
1:
0)
1A
1=
1<
0>
06
02
01
03
0(
0$
0#
0%
#820000
b11 !
b10 !
0:
17
1)
0A
1?
0=
0;
1>
16
04
12
10
13
1(
0&
1$
1"
1%
#830000
b11 !
1:
0)
0?
1=
14
02
1&
0$
#840000
b111 !
b101 !
b100 !
0:
07
18
1)
1A
0<
0>
06
11
03
0(
1#
0%
#850000
b101 !
1:
0)
0A
1@
1>
16
05
13
1(
0'
1%
#860000
b111 !
b110 !
0:
17
1)
1A
0=
06
12
0(
1$
#870000
b111 !
1:
0)
0A
0@
1=
1<
1;
0>
16
15
02
01
00
03
1(
1'
0$
0#
0"
0%
#880000
b1111 !
b1011 !
b1001 !
b1000 !
0:
07
08
19
1)
0=
0<
0;
1>
12
11
10
13
1$
1#
1"
1%
#890000
b1001 !
1:
0)
1=
0>
02
03
0$
0%
#900000
b1011 !
b1010 !
0:
17
1)
1A
1@
1?
0=
1<
1>
06
05
04
12
01
13
0(
0'
0&
1$
0#
1%
#910000
b1011 !
1:
0)
0?
1=
14
02
1&
0$
#920000
b1111 !
b1101 !
b1100 !
0:
07
18
1)
0@
1?
0<
0>
15
04
11
03
1'
0&
1#
0%
#930000
b1101 !
1:
0)
0A
1@
1>
16
05
13
1(
0'
1%
#940000
b1111 !
b1110 !
0:
17
1)
1A
0=
06
12
0(
1$
#950000
b1111 !
1:
0)
1=
1<
1;
0>
02
01
00
03
0$
0#
0"
0%
#960000
b111 !
b11 !
b1 !
b0 !
0:
07
08
09
1)
0A
0@
0?
0=
0<
1>
16
15
14
12
11
13
1(
1'
1&
1$
1#
1%
#970000
b1 !
1:
0)
1A
1=
1<
0>
06
02
01
03
0(
0$
0#
0%
#980000
b11 !
b10 !
0:
17
1)
0A
1?
0=
0;
1>
16
04
12
10
13
1(
0&
1$
1"
1%
#990000
b11 !
1:
0)
0?
1=
14
02
1&
0$
