数电/lab4_8/simulation/qsim/lab4_8.msim.vcd
$comment
	File created using the following command:
		vcd file lab4_8.msim.vcd -direction
$end
$date
	Thu Dec 07 10:47:22 2023
$end
$version
	ModelSim Version 10.1d
$end
$timescale
	1ps
$end
$scope module cnt24_8_vlg_vec_tst $end
$var reg 1 ! clk_24_8 $end
$var wire 1 " co_8 $end
$var wire 1 # q1_8 [3] $end
$var wire 1 $ q1_8 [2] $end
$var wire 1 % q1_8 [1] $end
$var wire 1 & q1_8 [0] $end
$var wire 1 ' q10_8 [3] $end
$var wire 1 ( q10_8 [2] $end
$var wire 1 ) q10_8 [1] $end
$var wire 1 * q10_8 [0] $end
$var wire 1 + sampler $end
$scope module i1 $end
$var wire 1 , gnd $end
$var wire 1 - vcc $end
$var wire 1 . unknown $end
$var tri1 1 / devclrn $end
$var tri1 1 0 devpor $end
$var tri1 1 1 devoe $end
$var wire 1 2 co_8~output_o $end
$var wire 1 3 q1_8[3]~output_o $end
$var wire 1 4 q1_8[2]~output_o $end
$var wire 1 5 q1_8[1]~output_o $end
$var wire 1 6 q1_8[0]~output_o $end
$var wire 1 7 q10_8[3]~output_o $end
$var wire 1 8 q10_8[2]~output_o $end
$var wire 1 9 q10_8[1]~output_o $end
$var wire 1 : q10_8[0]~output_o $end
$var wire 1 ; clk_24_8~input_o $end
$var wire 1 < clk_24_8~inputclkctrl_outclk $end
$var wire 1 = inst8~feeder_combout $end
$var wire 1 > inst6|7~0_combout $end
$var wire 1 ? inst6|7~feeder_combout $end
$var wire 1 @ inst6|7~q $end
$var wire 1 A inst6|5~0_combout $end
$var wire 1 B inst6|5~q $end
$var wire 1 C inst6|3~0_combout $end
$var wire 1 D inst6|3~feeder_combout $end
$var wire 1 E inst6|3~q $end
$var wire 1 F inst6|20~combout $end
$var wire 1 G inst6|6~0_combout $end
$var wire 1 H inst6|6~feeder_combout $end
$var wire 1 I inst6|6~q $end
$var wire 1 J inst6|34~0_combout $end
$var wire 1 K inst6|34~feeder_combout $end
$var wire 1 L inst6|34~q $end
$var wire 1 M inst6|31~0_combout $end
$var wire 1 N inst6|31~feeder_combout $end
$var wire 1 O inst6|31~q $end
$var wire 1 P inst6|29~combout $end
$var wire 1 Q inst6|33~0_combout $end
$var wire 1 R inst6|33~feeder_combout $end
$var wire 1 S inst6|33~q $end
$var wire 1 T inst6|32~0_combout $end
$var wire 1 U inst6|32~q $end
$var wire 1 V inst~1_combout $end
$var wire 1 W inst~0_combout $end
$var wire 1 X inst~combout $end
$var wire 1 Y inst8~q $end
$upscope $end
$upscope $end
$enddefinitions $end
#0
$dumpvars
0!
1"
0&
0%
0$
0#
0*
0)
0(
0'
x+
0,
1-
x.
1/
10
11
12
03
04
05
06
07
08
09
0:
0;
0<
1=
1>
1?
0@
1A
0B
0C
0D
0E
1F
1G
1H
0I
1J
1K
0L
0M
0N
0O
1P
1Q
1R
0S
1T
0U
1V
0W
0X
0Y
$end
#2500
1!
1;
1<
0+
1Y
02
0"
#5000
0!
0;
0<
1+
1@
0V
0F
0>
16
1&
0?
#7500
1!
1;
1<
0+
#10000
0!
0;
0<
1+
0@
1V
1F
1>
06
0&
1?
1I
0V
0G
15
1%
0H
#12500
1!
1;
1<
0+
#15000
0!
0;
0<
1+
1@
0F
0>
16
1&
0?
#17500
1!
1;
1<
0+
#20000
0!
0;
0<
1+
0@
1F
1>
06
0&
1?
0I
1V
1G
05
0%
1H
1B
0A
14
1$
#22500
1!
1;
1<
0+
#25000
0!
0;
0<
1+
1@
0V
0F
0>
16
1&
0?
#27500
1!
1;
1<
0+
#30000
0!
0;
0<
1+
0@
1V
1F
1>
06
0&
1?
1I
0V
0G
1C
15
1%
0H
1D
#32500
1!
1;
1<
0+
#35000
0!
0;
0<
1+
1@
0F
0>
16
1&
0?
#37500
1!
1;
1<
0+
#40000
0!
0;
0<
1+
0@
1F
1>
06
0&
1?
0I
1E
1V
1G
0C
05
13
0%
1#
1H
0D
0B
1A
04
0$
#42500
1!
1;
1<
0+
#45000
0!
0;
0<
1+
1@
0V
0>
16
1&
0?
#47500
1!
1;
1<
0+
#50000
0!
0;
0<
1+
0@
1V
1>
06
0&
1?
0E
03
0#
1L
0V
0P
0J
1:
1*
0K
#52500
1!
1;
1<
0+
#55000
0!
0;
0<
1+
1@
0F
0>
16
1&
0?
#57500
1!
1;
1<
0+
#60000
0!
0;
0<
1+
0@
1F
1>
06
0&
1?
1I
0G
15
1%
0H
#62500
1!
1;
1<
0+
#65000
0!
0;
0<
1+
1@
0F
0>
16
1&
0?
#67500
1!
1;
1<
0+
#70000
0!
0;
0<
1+
0@
1F
1>
06
0&
1?
0I
1G
05
0%
1H
1B
0A
14
1$
#72500
1!
1;
1<
0+
#75000
0!
0;
0<
1+
1@
0F
0>
16
1&
0?
#77500
1!
1;
1<
0+
#80000
0!
0;
0<
1+
0@
1F
1>
06
0&
1?
1I
0G
1C
15
1%
0H
1D
#82500
1!
1;
1<
0+
#85000
0!
0;
0<
1+
1@
0F
0>
16
1&
0?
#87500
1!
1;
1<
0+
#90000
0!
0;
0<
1+
0@
1F
1>
06
0&
1?
0I
1E
1G
0C
05
13
0%
1#
1H
0D
0B
1A
04
0$
#92500
1!
1;
1<
0+
#95000
0!
0;
0<
1+
1@
0>
16
1&
0?
#97500
1!
1;
1<
0+
#100000
0!
0;
0<
1+
0@
1>
06
0&
1?
0E
03
0#
0L
1V
1P
1J
0:
0*
1K
1S
0Q
19
1)
0R
#102500
1!
1;
1<
0+
#105000
0!
0;
0<
1+
1@
0V
0F
0>
16
1&
0?
#107500
1!
1;
1<
0+
#110000
0!
0;
0<
1+
0@
1V
1F
1>
06
0&
1?
1I
0V
0G
15
1%
0H
#112500
1!
1;
1<
0+
#115000
0!
0;
0<
1+
1@
0F
0>
16
1&
0?
#117500
1!
1;
1<
0+
#120000
0!
0;
0<
1+
0@
1F
1>
06
0&
1?
0I
1V
1G
05
0%
1H
1B
1W
0A
14
1$
1X
0Y
12
1"
0S
0B
0W
1Q
1A
09
04
0)
0$
0X
1R
#122500
1!
1;
1<
0+
1Y
02
0"
#125000
0!
0;
0<
1+
1@
0V
0F
0>
16
1&
0?
#127500
1!
1;
1<
0+
#130000
0!
0;
0<
1+
0@
1V
1F
1>
06
0&
1?
1I
0V
0G
15
1%
0H
#132500
1!
1;
1<
0+
#135000
0!
0;
0<
1+
1@
0F
0>
16
1&
0?
#137500
1!
1;
1<
0+
#140000
0!
0;
0<
1+
0@
1F
1>
06
0&
1?
0I
1V
1G
05
0%
1H
1B
0A
14
1$
#142500
1!
1;
1<
0+
#145000
0!
0;
0<
1+
1@
0V
0F
0>
16
1&
0?
#147500
1!
1;
1<
0+
#150000
0!
0;
0<
1+
0@
1V
1F
1>
06
0&
1?
1I
0V
0G
1C
15
1%
0H
1D
#152500
1!
1;
1<
0+
#155000
0!
0;
0<
1+
1@
0F
0>
16
1&
0?
#157500
1!
1;
1<
0+
#160000
0!
0;
0<
1+
0@
1F
1>
06
0&
1?
0I
1E
1V
1G
0C
05
13
0%
1#
1H
0D
0B
1A
04
0$
#162500
1!
1;
1<
0+
#165000
0!
0;
0<
1+
1@
0V
0>
16
1&
0?
#167500
1!
1;
1<
0+
#170000
0!
0;
0<
1+
0@
1V
1>
06
0&
1?
0E
03
0#
1L
0V
0P
0J
1:
1*
0K
#172500
1!
1;
1<
0+
#175000
0!
0;
0<
1+
1@
0F
0>
16
1&
0?
#177500
1!
1;
1<
0+
#180000
0!
0;
0<
1+
0@
1F
1>
06
0&
1?
1I
0G
15
1%
0H
#182500
1!
1;
1<
0+
#185000
0!
0;
0<
1+
1@
0F
0>
16
1&
0?
#187500
1!
1;
1<
0+
#190000
0!
0;
0<
1+
0@
1F
1>
06
0&
1?
0I
1G
05
0%
1H
1B
0A
14
1$
#192500
1!
1;
1<
0+
#195000
0!
0;
0<
1+
1@
0F
0>
16
1&
0?
#197500
1!
1;
1<
0+
#200000
0!
0;
0<
1+
0@
1F
1>
06
0&
1?
1I
0G
1C
15
1%
0H
1D
#202500
1!
1;
1<
0+
#205000
0!
0;
0<
1+
1@
0F
0>
16
1&
0?
#207500
1!
1;
1<
0+
#210000
0!
0;
0<
1+
0@
1F
1>
06
0&
1?
0I
1E
1G
0C
05
13
0%
1#
1H
0D
0B
1A
04
0$
#212500
1!
1;
1<
0+
#215000
0!
0;
0<
1+
1@
0>
16
1&
0?
#217500
1!
1;
1<
0+
#220000
0!
0;
0<
1+
0@
1>
06
0&
1?
0E
03
0#
0L
1V
1P
1J
0:
0*
1K
1S
0Q
19
1)
0R
#222500
1!
1;
1<
0+
#225000
0!
0;
0<
1+
1@
0V
0F
0>
16
1&
0?
#227500
1!
1;
1<
0+
#230000
0!
0;
0<
1+
0@
1V
1F
1>
06
0&
1?
1I
0V
0G
15
1%
0H
#232500
1!
1;
1<
0+
#235000
0!
0;
0<
1+
1@
0F
0>
16
1&
0?
#237500
1!
1;
1<
0+
#240000
0!
0;
0<
1+
0@
1F
1>
06
0&
1?
0I
1V
1G
05
0%
1H
1B
1W
0A
14
1$
1X
0Y
12
1"
0S
0B
0W
1Q
1A
09
04
0)
0$
0X
1R
#242500
1!
1;
1<
0+
1Y
02
0"
#245000
0!
0;
0<
1+
1@
0V
0F
0>
16
1&
0?
#247500
1!
1;
1<
0+
#250000
0!
0;
0<
1+
0@
1V
1F
1>
06
0&
1?
1I
0V
0G
15
1%
0H
#252500
1!
1;
1<
0+
#255000
0!
0;
0<
1+
1@
0F
0>
16
1&
0?
#257500
1!
1;
1<
0+
#260000
0!
0;
0<
1+
0@
1F
1>
06
0&
1?
0I
1V
1G
05
0%
1H
1B
0A
14
1$
#262500
1!
1;
1<
0+
#265000
0!
0;
0<
1+
1@
0V
0F
0>
16
1&
0?
#267500
1!
1;
1<
0+
#270000
0!
0;
0<
1+
0@
1V
1F
1>
06
0&
1?
1I
0V
0G
1C
15
1%
0H
1D
#272500
1!
1;
1<
0+
#275000
0!
0;
0<
1+
1@
0F
0>
16
1&
0?
#277500
1!
1;
1<
0+
#280000
0!
0;
0<
1+
0@
1F
1>
06
0&
1?
0I
1E
1V
1G
0C
05
13
0%
1#
1H
0D
0B
1A
04
0$
#282500
1!
1;
1<
0+
#285000
0!
0;
0<
1+
1@
0V
0>
16
1&
0?
#287500
1!
1;
1<
0+
#290000
0!
0;
0<
1+
0@
1V
1>
06
0&
1?
0E
03
0#
1L
0V
0P
0J
1:
1*
0K
#292500
1!
1;
1<
0+
#295000
0!
0;
0<
1+
1@
0F
0>
16
1&
0?
#297500
1!
1;
1<
0+
#300000
0!
0;
0<
1+
0@
1F
1>
06
0&
1?
1I
0G
15
1%
0H
#302500
1!
1;
1<
0+
#305000
0!
0;
0<
1+
1@
0F
0>
16
1&
0?
#307500
1!
1;
1<
0+
#310000
0!
0;
0<
1+
0@
1F
1>
06
0&
1?
0I
1G
05
0%
1H
1B
0A
14
1$
#312500
1!
1;
1<
0+
#315000
0!
0;
0<
1+
1@
0F
0>
16
1&
0?
#317500
1!
1;
1<
0+
#320000
0!
0;
0<
1+
0@
1F
1>
06
0&
1?
1I
0G
1C
15
1%
0H
1D
#322500
1!
1;
1<
0+
#325000
0!
0;
0<
1+
1@
0F
0>
16
1&
0?
#327500
1!
1;
1<
0+
#330000
0!
0;
0<
1+
0@
1F
1>
06
0&
1?
0I
1E
1G
0C
05
13
0%
1#
1H
0D
0B
1A
04
0$
#332500
1!
1;
1<
0+
#335000
0!
0;
0<
1+
1@
0>
16
1&
0?
#337500
1!
1;
1<
0+
#340000
0!
0;
0<
1+
0@
1>
06
0&
1?
0E
03
0#
0L
1V
1P
1J
0:
0*
1K
1S
0Q
19
1)
0R
#342500
1!
1;
1<
0+
#345000
0!
0;
0<
1+
1@
0V
0F
0>
16
1&
0?
#347500
1!
1;
1<
0+
#350000
0!
0;
0<
1+
0@
1V
1F
1>
06
0&
1?
1I
0V
0G
15
1%
0H
#352500
1!
1;
1<
0+
#355000
0!
0;
0<
1+
1@
0F
0>
16
1&
0?
#357500
1!
1;
1<
0+
#360000
0!
0;
0<
1+
0@
1F
1>
06
0&
1?
0I
1V
1G
05
0%
1H
1B
1W
0A
14
1$
1X
0Y
12
1"
0S
0B
0W
1Q
1A
09
04
0)
0$
0X
1R
#362500
1!
1;
1<
0+
1Y
02
0"
#365000
0!
0;
0<
1+
1@
0V
0F
0>
16
1&
0?
#367500
1!
1;
1<
0+
#370000
0!
0;
0<
1+
0@
1V
1F
1>
06
0&
1?
1I
0V
0G
15
1%
0H
#372500
1!
1;
1<
0+
#375000
0!
0;
0<
1+
1@
0F
0>
16
1&
0?
#377500
1!
1;
1<
0+
#380000
0!
0;
0<
1+
0@
1F
1>
06
0&
1?
0I
1V
1G
05
0%
1H
1B
0A
14
1$
#382500
1!
1;
1<
0+
#385000
0!
0;
0<
1+
1@
0V
0F
0>
16
1&
0?
#387500
1!
1;
1<
0+
#390000
0!
0;
0<
1+
0@
1V
1F
1>
06
0&
1?
1I
0V
0G
1C
15
1%
0H
1D
#392500
1!
1;
1<
0+
#395000
0!
0;
0<
1+
1@
0F
0>
16
1&
0?
#397500
1!
1;
1<
0+
#400000
0!
0;
0<
1+
0@
1F
1>
06
0&
1?
0I
1E
1V
1G
0C
05
13
0%
1#
1H
0D
0B
1A
04
0$
#402500
1!
1;
1<
0+
#405000
0!
0;
0<
1+
1@
0V
0>
16
1&
0?
#407500
1!
1;
1<
0+
#410000
0!
0;
0<
1+
0@
1V
1>
06
0&
1?
0E
03
0#
1L
0V
0P
0J
1:
1*
0K
#412500
1!
1;
1<
0+
#415000
0!
0;
0<
1+
1@
0F
0>
16
1&
0?
#417500
1!
1;
1<
0+
#420000
0!
0;
0<
1+
0@
1F
1>
06
0&
1?
1I
0G
15
1%
0H
#422500
1!
1;
1<
0+
#425000
0!
0;
0<
1+
1@
0F
0>
16
1&
0?
#427500
1!
1;
1<
0+
#430000
0!
0;
0<
1+
0@
1F
1>
06
0&
1?
0I
1G
05
0%
1H
1B
0A
14
1$
#432500
1!
1;
1<
0+
#435000
0!
0;
0<
1+
1@
0F
0>
16
1&
0?
#437500
1!
1;
1<
0+
#440000
0!
0;
0<
1+
0@
1F
1>
06
0&
1?
1I
0G
1C
15
1%
0H
1D
#442500
1!
1;
1<
0+
#445000
0!
0;
0<
1+
1@
0F
0>
16
1&
0?
#447500
1!
1;
1<
0+
#450000
0!
0;
0<
1+
0@
1F
1>
06
0&
1?
0I
1E
1G
0C
05
13
0%
1#
1H
0D
0B
1A
04
0$
#452500
1!
1;
1<
0+
#455000
0!
0;
0<
1+
1@
0>
16
1&
0?
#457500
1!
1;
1<
0+
#460000
0!
0;
0<
1+
0@
1>
06
0&
1?
0E
03
0#
0L
1V
1P
1J
0:
0*
1K
1S
0Q
19
1)
0R
#462500
1!
1;
1<
0+
#465000
0!
0;
0<
1+
1@
0V
0F
0>
16
1&
0?
#467500
1!
1;
1<
0+
#470000
0!
0;
0<
1+
0@
1V
1F
1>
06
0&
1?
1I
0V
0G
15
1%
0H
#472500
1!
1;
1<
0+
#475000
0!
0;
0<
1+
1@
0F
0>
16
1&
0?
#477500
1!
1;
1<
0+
#480000
0!
0;
0<
1+
0@
1F
1>
06
0&
1?
0I
1V
1G
05
0%
1H
1B
1W
0A
14
1$
1X
0Y
12
1"
0S
0B
0W
1Q
1A
09
04
0)
0$
0X
1R
#482500
1!
1;
1<
0+
1Y
02
0"
#485000
0!
0;
0<
1+
1@
0V
0F
0>
16
1&
0?
#487500
1!
1;
1<
0+
#490000
0!
0;
0<
1+
0@
1V
1F
1>
06
0&
1?
1I
0V
0G
15
1%
0H
#492500
1!
1;
1<
0+
#495000
0!
0;
0<
1+
1@
0F
0>
16
1&
0?
#497500
1!
1;
1<
0+
#500000
0!
0;
0<
1+
0@
1F
1>
06
0&
1?
0I
1V
1G
05
0%
1H
1B
0A
14
1$
#502500
1!
1;
1<
0+
#505000
0!
0;
0<
1+
1@
0V
0F
0>
16
1&
0?
#507500
1!
1;
1<
0+
#510000
0!
0;
0<
1+
0@
1V
1F
1>
06
0&
1?
1I
0V
0G
1C
15
1%
0H
1D
#512500
1!
1;
1<
0+
#515000
0!
0;
0<
1+
1@
0F
0>
16
1&
0?
#517500
1!
1;
1<
0+
#520000
0!
0;
0<
1+
0@
1F
1>
06
0&
1?
0I
1E
1V
1G
0C
05
13
0%
1#
1H
0D
0B
1A
04
0$
#522500
1!
1;
1<
0+
#525000
0!
0;
0<
1+
1@
0V
0>
16
1&
0?
#527500
1!
1;
1<
0+
#530000
0!
0;
0<
1+
0@
1V
1>
06
0&
1?
0E
03
0#
1L
0V
0P
0J
1:
1*
0K
#532500
1!
1;
1<
0+
#535000
0!
0;
0<
1+
1@
0F
0>
16
1&
0?
#537500
1!
1;
1<
0+
#540000
0!
0;
0<
1+
0@
1F
1>
06
0&
1?
1I
0G
15
1%
0H
#542500
1!
1;
1<
0+
#545000
0!
0;
0<
1+
1@
0F
0>
16
1&
0?
#547500
1!
1;
1<
0+
#550000
0!
0;
0<
1+
0@
1F
1>
06
0&
1?
0I
1G
05
0%
1H
1B
0A
14
1$
#552500
1!
1;
1<
0+
#555000
0!
0;
0<
1+
1@
0F
0>
16
1&
0?
#557500
1!
1;
1<
0+
#560000
0!
0;
0<
1+
0@
1F
1>
06
0&
1?
1I
0G
1C
15
1%
0H
1D
#562500
1!
1;
1<
0+
#565000
0!
0;
0<
1+
1@
0F
0>
16
1&
0?
#567500
1!
1;
1<
0+
#570000
0!
0;
0<
1+
0@
1F
1>
06
0&
1?
0I
1E
1G
0C
05
13
0%
1#
1H
0D
0B
1A
04
0$
#572500
1!
1;
1<
0+
#575000
0!
0;
0<
1+
1@
0>
16
1&
0?
#577500
1!
1;
1<
0+
#580000
0!
0;
0<
1+
0@
1>
06
0&
1?
0E
03
0#
0L
1V
1P
1J
0:
0*
1K
1S
0Q
19
1)
0R
#582500
1!
1;
1<
0+
#585000
0!
0;
0<
1+
1@
0V
0F
0>
16
1&
0?
#587500
1!
1;
1<
0+
#590000
0!
0;
0<
1+
0@
1V
1F
1>
06
0&
1?
1I
0V
0G
15
1%
0H
#592500
1!
1;
1<
0+
#595000
0!
0;
0<
1+
1@
0F
0>
16
1&
0?
#597500
1!
1;
1<
0+
#600000
0!
0;
0<
1+
0@
1F
1>
06
0&
1?
0I
1V
1G
05
0%
1H
1B
1W
0A
14
1$
1X
0Y
12
1"
0S
0B
0W
1Q
1A
09
04
0)
0$
0X
1R
#602500
1!
1;
1<
0+
1Y
02
0"
#605000
0!
0;
0<
1+
1@
0V
0F
0>
16
1&
0?
#607500
1!
1;
1<
0+
#610000
0!
0;
0<
1+
0@
1V
1F
1>
06
0&
1?
1I
0V
0G
15
1%
0H
#612500
1!
1;
1<
0+
#615000
0!
0;
0<
1+
1@
0F
0>
16
1&
0?
#617500
1!
1;
1<
0+
#620000
0!
0;
0<
1+
0@
1F
1>
06
0&
1?
0I
1V
1G
05
0%
1H
1B
0A
14
1$
#622500
1!
1;
1<
0+
#625000
0!
0;
0<
1+
1@
0V
0F
0>
16
1&
0?
#627500
1!
1;
1<
0+
#630000
0!
0;
0<
1+
0@
1V
1F
1>
06
0&
1?
1I
0V
0G
1C
15
1%
0H
1D
#632500
1!
1;
1<
0+
#635000
0!
0;
0<
1+
1@
0F
0>
16
1&
0?
#637500
1!
1;
1<
0+
#640000
0!
0;
0<
1+
0@
1F
1>
06
0&
1?
0I
1E
1V
1G
0C
05
13
0%
1#
1H
0D
0B
1A
04
0$
#642500
1!
1;
1<
0+
#645000
0!
0;
0<
1+
1@
0V
0>
16
1&
0?
#647500
1!
1;
1<
0+
#650000
0!
0;
0<
1+
0@
1V
1>
06
0&
1?
0E
03
0#
1L
0V
0P
0J
1:
1*
0K
#652500
1!
1;
1<
0+
#655000
0!
0;
0<
1+
1@
0F
0>
16
1&
0?
#657500
1!
1;
1<
0+
#660000
0!
0;
0<
1+
0@
1F
1>
06
0&
1?
1I
0G
15
1%
0H
#662500
1!
1;
1<
0+
#665000
0!
0;
0<
1+
1@
0F
0>
16
1&
0?
#667500
1!
1;
1<
0+
#670000
0!
0;
0<
1+
0@
1F
1>
06
0&
1?
0I
1G
05
0%
1H
1B
0A
14
1$
#672500
1!
1;
1<
0+
#675000
0!
0;
0<
1+
1@
0F
0>
16
1&
0?
#677500
1!
1;
1<
0+
#680000
0!
0;
0<
1+
0@
1F
1>
06
0&
1?
1I
0G
1C
15
1%
0H
1D
#682500
1!
1;
1<
0+
#685000
0!
0;
0<
1+
1@
0F
0>
16
1&
0?
#687500
1!
1;
1<
0+
#690000
0!
0;
0<
1+
0@
1F
1>
06
0&
1?
0I
1E
1G
0C
05
13
0%
1#
1H
0D
0B
1A
04
0$
#692500
1!
1;
1<
0+
#695000
0!
0;
0<
1+
1@
0>
16
1&
0?
#697500
1!
1;
1<
0+
#700000
0!
0;
0<
1+
0@
1>
06
0&
1?
0E
03
0#
0L
1V
1P
1J
0:
0*
1K
1S
0Q
19
1)
0R
#702500
1!
1;
1<
0+
#705000
0!
0;
0<
1+
1@
0V
0F
0>
16
1&
0?
#707500
1!
1;
1<
0+
#710000
0!
0;
0<
1+
0@
1V
1F
1>
06
0&
1?
1I
0V
0G
15
1%
0H
#712500
1!
1;
1<
0+
#715000
0!
0;
0<
1+
1@
0F
0>
16
1&
0?
#717500
1!
1;
1<
0+
#720000
0!
0;
0<
1+
0@
1F
1>
06
0&
1?
0I
1V
1G
05
0%
1H
1B
1W
0A
14
1$
1X
0Y
12
1"
0S
0B
0W
1Q
1A
09
04
0)
0$
0X
1R
#722500
1!
1;
1<
0+
1Y
02
0"
#725000
0!
0;
0<
1+
1@
0V
0F
0>
16
1&
0?
#727500
1!
1;
1<
0+
#730000
0!
0;
0<
1+
0@
1V
1F
1>
06
0&
1?
1I
0V
0G
15
1%
0H
#732500
1!
1;
1<
0+
#735000
0!
0;
0<
1+
1@
0F
0>
16
1&
0?
#737500
1!
1;
1<
0+
#740000
0!
0;
0<
1+
0@
1F
1>
06
0&
1?
0I
1V
1G
05
0%
1H
1B
0A
14
1$
#742500
1!
1;
1<
0+
#745000
0!
0;
0<
1+
1@
0V
0F
0>
16
1&
0?
#747500
1!
1;
1<
0+
#750000
0!
0;
0<
1+
0@
1V
1F
1>
06
0&
1?
1I
0V
0G
1C
15
1%
0H
1D
#752500
1!
1;
1<
0+
#755000
0!
0;
0<
1+
1@
0F
0>
16
1&
0?
#757500
1!
1;
1<
0+
#760000
0!
0;
0<
1+
0@
1F
1>
06
0&
1?
0I
1E
1V
1G
0C
05
13
0%
1#
1H
0D
0B
1A
04
0$
#762500
1!
1;
1<
0+
#765000
0!
0;
0<
1+
1@
0V
0>
16
1&
0?
#767500
1!
1;
1<
0+
#770000
0!
0;
0<
1+
0@
1V
1>
06
0&
1?
0E
03
0#
1L
0V
0P
0J
1:
1*
0K
#772500
1!
1;
1<
0+
#775000
0!
0;
0<
1+
1@
0F
0>
16
1&
0?
#777500
1!
1;
1<
0+
#780000
0!
0;
0<
1+
0@
1F
1>
06
0&
1?
1I
0G
15
1%
0H
#782500
1!
1;
1<
0+
#785000
0!
0;
0<
1+
1@
0F
0>
16
1&
0?
#787500
1!
1;
1<
0+
#790000
0!
0;
0<
1+
0@
1F
1>
06
0&
1?
0I
1G
05
0%
1H
1B
0A
14
1$
#792500
1!
1;
1<
0+
#795000
0!
0;
0<
1+
1@
0F
0>
16
1&
0?
#797500
1!
1;
1<
0+
#800000
0!
0;
0<
1+
0@
1F
1>
06
0&
1?
1I
0G
1C
15
1%
0H
1D
#802500
1!
1;
1<
0+
#805000
0!
0;
0<
1+
1@
0F
0>
16
1&
0?
#807500
1!
1;
1<
0+
#810000
0!
0;
0<
1+
0@
1F
1>
06
0&
1?
0I
1E
1G
0C
05
13
0%
1#
1H
0D
0B
1A
04
0$
#812500
1!
1;
1<
0+
#815000
0!
0;
0<
1+
1@
0>
16
1&
0?
#817500
1!
1;
1<
0+
#820000
0!
0;
0<
1+
0@
1>
06
0&
1?
0E
03
0#
0L
1V
1P
1J
0:
0*
1K
1S
0Q
19
1)
0R
#822500
1!
1;
1<
0+
#825000
0!
0;
0<
1+
1@
0V
0F
0>
16
1&
0?
#827500
1!
1;
1<
0+
#830000
0!
0;
0<
1+
0@
1V
1F
1>
06
0&
1?
1I
0V
0G
15
1%
0H
#832500
1!
1;
1<
0+
#835000
0!
0;
0<
1+
1@
0F
0>
16
1&
0?
#837500
1!
1;
1<
0+
#840000
0!
0;
0<
1+
0@
1F
1>
06
0&
1?
0I
1V
1G
05
0%
1H
1B
1W
0A
14
1$
1X
0Y
12
1"
0S
0B
0W
1Q
1A
09
04
0)
0$
0X
1R
#842500
1!
1;
1<
0+
1Y
02
0"
#845000
0!
0;
0<
1+
1@
0V
0F
0>
16
1&
0?
#847500
1!
1;
1<
0+
#850000
0!
0;
0<
1+
0@
1V
1F
1>
06
0&
1?
1I
0V
0G
15
1%
0H
#852500
1!
1;
1<
0+
#855000
0!
0;
0<
1+
1@
0F
0>
16
1&
0?
#857500
1!
1;
1<
0+
#860000
0!
0;
0<
1+
0@
1F
1>
06
0&
1?
0I
1V
1G
05
0%
1H
1B
0A
14
1$
#862500
1!
1;
1<
0+
#865000
0!
0;
0<
1+
1@
0V
0F
0>
16
1&
0?
#867500
1!
1;
1<
0+
#870000
0!
0;
0<
1+
0@
1V
1F
1>
06
0&
1?
1I
0V
0G
1C
15
1%
0H
1D
#872500
1!
1;
1<
0+
#875000
0!
0;
0<
1+
1@
0F
0>
16
1&
0?
#877500
1!
1;
1<
0+
#880000
0!
0;
0<
1+
0@
1F
1>
06
0&
1?
0I
1E
1V
1G
0C
05
13
0%
1#
1H
0D
0B
1A
04
0$
#882500
1!
1;
1<
0+
#885000
0!
0;
0<
1+
1@
0V
0>
16
1&
0?
#887500
1!
1;
1<
0+
#890000
0!
0;
0<
1+
0@
1V
1>
06
0&
1?
0E
03
0#
1L
0V
0P
0J
1:
1*
0K
#892500
1!
1;
1<
0+
#895000
0!
0;
0<
1+
1@
0F
0>
16
1&
0?
#897500
1!
1;
1<
0+
#900000
0!
0;
0<
1+
0@
1F
1>
06
0&
1?
1I
0G
15
1%
0H
#902500
1!
1;
1<
0+
#905000
0!
0;
0<
1+
1@
0F
0>
16
1&
0?
#907500
1!
1;
1<
0+
#910000
0!
0;
0<
1+
0@
1F
1>
06
0&
1?
0I
1G
05
0%
1H
1B
0A
14
1$
#912500
1!
1;
1<
0+
#915000
0!
0;
0<
1+
1@
0F
0>
16
1&
0?
#917500
1!
1;
1<
0+
#920000
0!
0;
0<
1+
0@
1F
1>
06
0&
1?
1I
0G
1C
15
1%
0H
1D
#922500
1!
1;
1<
0+
#925000
0!
0;
0<
1+
1@
0F
0>
16
1&
0?
#927500
1!
1;
1<
0+
#930000
0!
0;
0<
1+
0@
1F
1>
06
0&
1?
0I
1E
1G
0C
05
13
0%
1#
1H
0D
0B
1A
04
0$
#932500
1!
1;
1<
0+
#935000
0!
0;
0<
1+
1@
0>
16
1&
0?
#937500
1!
1;
1<
0+
#940000
0!
0;
0<
1+
0@
1>
06
0&
1?
0E
03
0#
0L
1V
1P
1J
0:
0*
1K
1S
0Q
19
1)
0R
#942500
1!
1;
1<
0+
#945000
0!
0;
0<
1+
1@
0V
0F
0>
16
1&
0?
#947500
1!
1;
1<
0+
#950000
0!
0;
0<
1+
0@
1V
1F
1>
06
0&
1?
1I
0V
0G
15
1%
0H
#952500
1!
1;
1<
0+
#955000
0!
0;
0<
1+
1@
0F
0>
16
1&
0?
#957500
1!
1;
1<
0+
#960000
0!
0;
0<
1+
0@
1F
1>
06
0&
1?
0I
1V
1G
05
0%
1H
1B
1W
0A
14
1$
1X
0Y
12
1"
0S
0B
0W
1Q
1A
09
04
0)
0$
0X
1R
#962500
1!
1;
1<
0+
1Y
02
0"
#965000
0!
0;
0<
1+
1@
0V
0F
0>
16
1&
0?
#967500
1!
1;
1<
0+
#970000
0!
0;
0<
1+
0@
1V
1F
1>
06
0&
1?
1I
0V
0G
15
1%
0H
#972500
1!
1;
1<
0+
#975000
0!
0;
0<
1+
1@
0F
0>
16
1&
0?
#977500
1!
1;
1<
0+
#980000
0!
0;
0<
1+
0@
1F
1>
06
0&
1?
0I
1V
1G
05
0%
1H
1B
0A
14
1$
#982500
1!
1;
1<
0+
#985000
0!
0;
0<
1+
1@
0V
0F
0>
16
1&
0?
#987500
1!
1;
1<
0+
#990000
0!
0;
0<
1+
0@
1V
1F
1>
06
0&
1?
1I
0V
0G
1C
15
1%
0H
1D
#992500
1!
1;
1<
0+
#995000
0!
0;
0<
1+
1@
0F
0>
16
1&
0?
#997500
1!
1;
1<
0+
