数电/chenhaibin/szdzz_34tian/simulation/qsim/lab9_34.msim.vcd
$comment
	File created using the following command:
		vcd file lab9_34.msim.vcd -direction
$end
$date
	Fri Dec 30 22:39:02 2022
$end
$version
	ModelSim Version 10.1d
$end
$timescale
	1ps
$end
$scope module cnt7_vlg_vec_tst $end
$var reg 1 ! clear_34 $end
$var reg 1 " clk_cnt7_34 $end
$var wire 1 # out_34 [3] $end
$var wire 1 $ out_34 [2] $end
$var wire 1 % out_34 [1] $end
$var wire 1 & out_34 [0] $end
$var wire 1 ' sampler $end
$scope module i1 $end
$var wire 1 ( gnd $end
$var wire 1 ) vcc $end
$var wire 1 * unknown $end
$var tri1 1 + devclrn $end
$var tri1 1 , devpor $end
$var tri1 1 - devoe $end
$var wire 1 . out_34[3]~output_o $end
$var wire 1 / out_34[2]~output_o $end
$var wire 1 0 out_34[1]~output_o $end
$var wire 1 1 out_34[0]~output_o $end
$var wire 1 2 clk_cnt7_34~input_o $end
$var wire 1 3 clk_cnt7_34~inputclkctrl_outclk $end
$var wire 1 4 clear_34~input_o $end
$var wire 1 5 inst|sub|98~combout $end
$var wire 1 6 inst|sub|99~q $end
$var wire 1 7 inst|sub|75~combout $end
$var wire 1 8 inst|sub|9~q $end
$var wire 1 9 inst|sub|86~combout $end
$var wire 1 : inst|sub|87~q $end
$var wire 1 ; inst3~0_combout $end
$var wire 1 < inst|sub|108~combout $end
$var wire 1 = inst|sub|110~q $end
$upscope $end
$upscope $end
$enddefinitions $end
#0
$dumpvars
0!
0"
0&
0%
0$
0#
x'
0(
1)
x*
1+
1,
1-
0.
0/
00
01
02
03
04
05
06
17
08
09
0:
0;
0<
0=
$end
#18000
1"
12
13
0'
18
19
07
11
1&
#36000
0"
02
03
1'
#54000
1"
12
13
0'
1:
08
17
10
01
1%
0&
#72000
0"
02
03
1'
#90000
1"
12
13
0'
18
09
07
15
11
1&
#108000
0"
02
03
1'
#126000
1"
12
13
0'
0:
08
16
17
00
01
1/
0%
0&
1$
#144000
0"
02
03
1'
#162000
1"
12
13
0'
18
19
07
11
1&
#180000
0"
02
03
1'
#198000
1"
12
13
0'
1:
08
17
10
01
1%
0&
#216000
0"
02
03
1'
#234000
1"
12
13
0'
18
1;
09
05
11
1&
#252000
0"
02
03
1'
#270000
1"
12
13
0'
0:
06
0;
19
07
00
0/
0%
0$
#288000
0"
02
03
1'
#306000
1"
12
13
0'
1:
08
17
10
01
1%
0&
#324000
0"
02
03
1'
#342000
1"
12
13
0'
18
09
07
15
11
1&
#360000
0"
02
03
1'
#378000
1"
12
13
0'
0:
08
16
17
00
01
1/
0%
0&
1$
#396000
0"
02
03
1'
#414000
1"
12
13
0'
18
19
07
11
1&
#432000
0"
02
03
1'
#450000
1"
12
13
0'
1:
08
17
10
01
1%
0&
#468000
0"
02
03
1'
#486000
1"
12
13
0'
18
1;
09
05
11
1&
#504000
0"
02
03
1'
#522000
1"
12
13
0'
0:
06
0;
19
07
00
0/
0%
0$
#540000
0"
02
03
1'
#558000
1"
12
13
0'
1:
08
17
10
01
1%
0&
#576000
0"
02
03
1'
#594000
1"
12
13
0'
18
09
07
15
11
1&
#612000
0"
02
03
1'
#630000
1!
1"
14
12
13
0'
17
05
0:
08
16
00
01
1/
0%
0&
1$
#648000
0"
02
03
1'
#666000
1"
12
13
0'
18
06
11
0/
1&
0$
#684000
0"
02
03
1'
#702000
1"
12
13
0'
#720000
0!
0"
04
02
03
1'
19
07
#738000
1"
12
13
0'
1:
08
17
10
01
1%
0&
#756000
0"
02
03
1'
#774000
1"
12
13
0'
18
09
07
15
11
1&
#792000
0"
02
03
1'
#810000
1"
12
13
0'
0:
08
16
17
00
01
1/
0%
0&
1$
#828000
0"
02
03
1'
#846000
1"
12
13
0'
18
19
07
11
1&
#864000
0"
02
03
1'
#882000
1"
12
13
0'
1:
08
17
10
01
1%
0&
#900000
0"
02
03
1'
#918000
1"
12
13
0'
18
1;
09
05
11
1&
#936000
0"
02
03
1'
#954000
1"
12
13
0'
0:
06
0;
19
07
00
0/
0%
0$
#972000
0"
02
03
1'
#990000
1"
12
13
0'
1:
08
17
10
01
1%
0&
